<?xml version="1.0" encoding="iso-8859-1"?>
<svg xmlns="http://www.w3.org/2000/svg" xmlns:xlink="http://www.w3.org/1999/xlink" version="1.1" viewBox="0 0 463 463" enable-background="new 0 0 463 463" width="512px" height="512px">
  <path d="m455.5,416h-16.5v-88.5c0-4.142-3.358-7.5-7.5-7.5h-8.5v-16.5c0-8.547-6.953-15.5-15.5-15.5h-32.5v-96.5c0-4.142-3.358-7.5-7.5-7.5h-9.402c-2.783-11.355-11.743-20.306-23.098-23.091v-49.409c0-4.142-3.358-7.5-7.5-7.5s-7.5,3.358-7.5,7.5v49.409c-11.355,2.785-20.314,11.736-23.098,23.091h-1.902v-64.5c0-2.667-1.417-5.134-3.721-6.479l-92.279-53.829v-19.692c0-4.142-3.358-7.5-7.5-7.5s-7.5,3.358-7.5,7.5v120.5h-48.5c-4.142,0-7.5,3.358-7.5,7.5v90.144l-90.319,22.58c-3.339,0.835-5.681,3.835-5.681,7.276v128.5h-24.5c-4.142,0-7.5,3.358-7.5,7.5s3.358,7.5 7.5,7.5h448c4.142,0 7.5-3.358 7.5-7.5s-3.358-7.5-7.5-7.5zm-112-96c-4.142,0-7.5,3.358-7.5,7.5v48.5h-41v-65h57v9h-8.5zm80.5,64h-73v-17h73v17zm-70.055-88h-58.945v-65h65v58.945c-2.541,1.412-4.643,3.514-6.055,6.055zm-58.945,95h41v25h-41v-25zm56,8h73v17h-73v-17zm73-47h-73v-17h73v17zm-16-48.5v16.5h-41v-16.5c0-0.276 0.224-0.5 0.5-0.5h40c0.276,0 0.5,0.224 0.5,0.5zm-104.5-104.5c4.142,0 7.5-3.358 7.5-7.5 0-9.098 7.402-16.5 16.5-16.5s16.5,7.402 16.5,16.5c0,4.142 3.358,7.5 7.5,7.5h8.5v17h-65v-17h8.5zm-104.5-122.442l81,47.25v292.192h-17v-280.5c0-4.142-3.358-7.5-7.5-7.5s-7.5,3.358-7.5,7.5v280.5h-17v-248.5c0-4.142-3.358-7.5-7.5-7.5h-24.5v-83.442zm17,258.442v17h-73v-17h73zm-73-15v-17h73v17h-73zm73-64h-73v-17h73v17zm0,15v17h-73v-17h73zm-73,96h73v17h-73v-17zm73-143h-73v-17h73v17zm-73,175h73v17h-73v-17zm73-224v17h-73v-17h73zm-169,118.356l81-20.25v142.894h-17v-104.5c0-4.142-3.358-7.5-7.5-7.5s-7.5,3.358-7.5,7.5v104.5h-17v-96.5c0-4.142-3.358-7.5-7.5-7.5s-7.5,3.358-7.5,7.5v96.5h-17v-122.644z" fill="#91DC5A"/>
</svg>
